EESchema Schematic File Version 4
EELAYER 30 0
EELAYER END
$Descr A4 11693 8268
encoding utf-8
Sheet 1 1
Title ""
Date ""
Rev ""
Comp ""
Comment1 ""
Comment2 ""
Comment3 ""
Comment4 ""
$EndDescr
$Comp
L Connector:Conn_01x02_Male J1
U 1 1 5D03C795
P 1250 1150
F 0 "J1" H 1358 1331 50  0000 C CNN
F 1 "AC_IN" H 1358 1240 50  0000 C CNN
F 2 "TerminalBlock:TerminalBlock_bornier-2_P5.08mm" H 1250 1150 50  0001 C CNN
F 3 "~" H 1250 1150 50  0001 C CNN
	1    1250 1150
	1    0    0    -1  
$EndComp
$Comp
L Device:D_Bridge_+-AA D1
U 1 1 5D03D12C
P 2050 1200
F 0 "D1" H 2300 1350 50  0000 L CNN
F 1 "D_Bridge_+-AA" H 2394 1155 50  0001 L CNN
F 2 "Package_DIP:DIP-4_W7.62mm" H 2050 1200 50  0001 C CNN
F 3 "~" H 2050 1200 50  0001 C CNN
	1    2050 1200
	1    0    0    -1  
$EndComp
$Comp
L power:GND #PWR0101
U 1 1 5D03DB36
P 1650 1750
F 0 "#PWR0101" H 1650 1500 50  0001 C CNN
F 1 "GND" H 1655 1577 50  0000 C CNN
F 2 "" H 1650 1750 50  0001 C CNN
F 3 "" H 1650 1750 50  0001 C CNN
	1    1650 1750
	1    0    0    -1  
$EndComp
Wire Wire Line
	1650 1750 1650 1200
Wire Wire Line
	1650 1200 1750 1200
Wire Wire Line
	1450 800  2050 800 
Wire Wire Line
	2050 800  2050 900 
Wire Wire Line
	1450 1250 1450 1600
Wire Wire Line
	1450 1600 2050 1600
Wire Wire Line
	2050 1600 2050 1500
$Comp
L Device:CP C1
U 1 1 5D03E6EC
P 2550 1500
F 0 "C1" H 2668 1546 50  0000 L CNN
F 1 "100u/400V" H 2668 1455 50  0000 L CNN
F 2 "Capacitor_THT:CP_Radial_D18.0mm_P7.50mm" H 2588 1350 50  0001 C CNN
F 3 "~" H 2550 1500 50  0001 C CNN
	1    2550 1500
	1    0    0    -1  
$EndComp
Wire Wire Line
	2550 1350 2550 1200
Wire Wire Line
	2550 1200 2350 1200
$Comp
L power:GND #PWR0102
U 1 1 5D03ED9B
P 2550 1650
F 0 "#PWR0102" H 2550 1400 50  0001 C CNN
F 1 "GND" H 2555 1477 50  0000 C CNN
F 2 "" H 2550 1650 50  0001 C CNN
F 3 "" H 2550 1650 50  0001 C CNN
	1    2550 1650
	1    0    0    -1  
$EndComp
$Comp
L Device:D_Zener D2
U 1 1 5D0401EB
P 3350 1500
F 0 "D2" V 3396 1421 50  0000 R CNN
F 1 "D_Zener" V 3305 1421 50  0000 R CNN
F 2 "Diode_THT:D_T-1_P10.16mm_Horizontal" H 3350 1500 50  0001 C CNN
F 3 "~" H 3350 1500 50  0001 C CNN
	1    3350 1500
	0    -1   -1   0   
$EndComp
$Comp
L Device:R R1
U 1 1 5D041D0C
P 3350 1950
F 0 "R1" H 3420 1996 50  0000 L CNN
F 1 "1k" H 3420 1905 50  0000 L CNN
F 2 "Resistor_THT:R_Axial_DIN0207_L6.3mm_D2.5mm_P10.16mm_Horizontal" V 3280 1950 50  0001 C CNN
F 3 "~" H 3350 1950 50  0001 C CNN
	1    3350 1950
	1    0    0    -1  
$EndComp
Wire Wire Line
	2550 1200 3350 1200
Wire Wire Line
	3350 1200 3350 1350
Connection ~ 2550 1200
Wire Wire Line
	3350 1650 3350 1800
$Comp
L Device:D D3
U 1 1 5D043002
P 3350 2500
F 0 "D3" V 3304 2579 50  0000 L CNN
F 1 "1N4007" V 3395 2579 50  0000 L CNN
F 2 "Diode_THT:D_T-1_P10.16mm_Horizontal" H 3350 2500 50  0001 C CNN
F 3 "~" H 3350 2500 50  0001 C CNN
	1    3350 2500
	0    1    1    0   
$EndComp
Connection ~ 3350 1200
Wire Wire Line
	3350 3750 3350 2800
$Comp
L power:GND #PWR0103
U 1 1 5D044C7B
P 3350 4350
F 0 "#PWR0103" H 3350 4100 50  0001 C CNN
F 1 "GND" H 3355 4177 50  0000 C CNN
F 2 "" H 3350 4350 50  0001 C CNN
F 3 "" H 3350 4350 50  0001 C CNN
	1    3350 4350
	1    0    0    -1  
$EndComp
$Comp
L My_Library:ETD29 TR1
U 1 1 5D0453B7
P 4850 1750
F 0 "TR1" H 4850 2275 50  0000 C CNN
F 1 "ETD29" H 4850 2184 50  0000 C CNN
F 2 "MyLibrary:ETD29_Horizontal" H 4750 2050 50  0001 C CNN
F 3 "" H 4750 2050 50  0001 C CNN
	1    4850 1750
	1    0    0    -1  
$EndComp
Wire Wire Line
	4400 1200 4400 1450
Wire Wire Line
	4400 1450 4650 1450
Wire Wire Line
	4350 2800 3350 2800
Connection ~ 3350 2800
Wire Wire Line
	3350 2800 3350 2650
Wire Wire Line
	4050 4300 4050 4150
Wire Wire Line
	4050 4150 3950 4150
$Comp
L power:GND #PWR0104
U 1 1 5D047346
P 4050 4500
F 0 "#PWR0104" H 4050 4250 50  0001 C CNN
F 1 "GND" H 4055 4327 50  0000 C CNN
F 2 "" H 4050 4500 50  0001 C CNN
F 3 "" H 4050 4500 50  0001 C CNN
	1    4050 4500
	1    0    0    -1  
$EndComp
$Comp
L Device:D_Schottky D6
U 1 1 5D055802
P 5600 2600
F 0 "D6" H 5600 2476 50  0000 C CNN
F 1 "D_Schottky" H 5600 2475 50  0001 C CNN
F 2 "Diode_THT:D_T-1_P2.54mm_Vertical_AnodeUp" H 5600 2600 50  0001 C CNN
F 3 "~" H 5600 2600 50  0001 C CNN
	1    5600 2600
	-1   0    0    1   
$EndComp
$Comp
L Device:CP C6
U 1 1 5D055BEB
P 5900 2850
F 0 "C6" H 6018 2896 50  0000 L CNN
F 1 "1000u/25V" H 6018 2805 50  0000 L CNN
F 2 "Capacitor_THT:CP_Radial_D12.5mm_P5.00mm" H 5938 2700 50  0001 C CNN
F 3 "~" H 5900 2850 50  0001 C CNN
	1    5900 2850
	1    0    0    -1  
$EndComp
$Comp
L power:GNDA #PWR0106
U 1 1 5D057A63
P 5150 2350
F 0 "#PWR0106" H 5150 2100 50  0001 C CNN
F 1 "GNDA" H 5155 2177 50  0000 C CNN
F 2 "" H 5150 2350 50  0001 C CNN
F 3 "" H 5150 2350 50  0001 C CNN
	1    5150 2350
	1    0    0    -1  
$EndComp
Wire Wire Line
	5150 2350 5150 2050
Wire Wire Line
	5150 2050 5050 2050
Wire Wire Line
	5450 2600 5300 2600
Wire Wire Line
	5750 2600 5900 2600
Wire Wire Line
	5900 2600 5900 2700
$Comp
L power:GNDA #PWR0107
U 1 1 5D05A941
P 5900 3000
F 0 "#PWR0107" H 5900 2750 50  0001 C CNN
F 1 "GNDA" H 5905 2827 50  0000 C CNN
F 2 "" H 5900 3000 50  0001 C CNN
F 3 "" H 5900 3000 50  0001 C CNN
	1    5900 3000
	1    0    0    -1  
$EndComp
$Comp
L Isolator:PC817 U2
U 1 1 5D05B34D
P 4850 4050
F 0 "U2" H 4850 4375 50  0000 C CNN
F 1 "PC817" H 4850 4284 50  0000 C CNN
F 2 "Package_DIP:DIP-4_W7.62mm" H 4650 3850 50  0001 L CIN
F 3 "http://www.soselectronic.cz/a_info/resource/d/pc817.pdf" H 4850 4050 50  0001 L CNN
	1    4850 4050
	-1   0    0    -1  
$EndComp
$Comp
L power:GND #PWR0108
U 1 1 5D05CD04
P 4500 4250
F 0 "#PWR0108" H 4500 4000 50  0001 C CNN
F 1 "GND" H 4505 4077 50  0000 C CNN
F 2 "" H 4500 4250 50  0001 C CNN
F 3 "" H 4500 4250 50  0001 C CNN
	1    4500 4250
	1    0    0    -1  
$EndComp
Wire Wire Line
	4500 4250 4500 4150
Wire Wire Line
	4500 4150 4550 4150
Wire Wire Line
	4550 3950 3950 3950
$Comp
L Connector:Conn_01x02_Male J2
U 1 1 5D05F27A
P 7900 2700
F 0 "J2" H 7872 2582 50  0000 R CNN
F 1 "12V" H 7872 2673 50  0000 R CNN
F 2 "Connector_Molex:Molex_KK-254_AE-6410-02A_1x02_P2.54mm_Vertical" H 7900 2700 50  0001 C CNN
F 3 "~" H 7900 2700 50  0001 C CNN
	1    7900 2700
	-1   0    0    1   
$EndComp
Connection ~ 5900 2600
$Comp
L power:GNDA #PWR0109
U 1 1 5D060BFF
P 7600 2800
F 0 "#PWR0109" H 7600 2550 50  0001 C CNN
F 1 "GNDA" H 7605 2627 50  0000 C CNN
F 2 "" H 7600 2800 50  0001 C CNN
F 3 "" H 7600 2800 50  0001 C CNN
	1    7600 2800
	1    0    0    -1  
$EndComp
$Comp
L Device:D_Zener D7
U 1 1 5D066DB6
P 6550 3250
F 0 "D7" V 6504 3329 50  0000 L CNN
F 1 "12V" V 6595 3329 50  0000 L CNN
F 2 "Diode_THT:D_T-1_P10.16mm_Horizontal" H 6550 3250 50  0001 C CNN
F 3 "~" H 6550 3250 50  0001 C CNN
	1    6550 3250
	0    1    1    0   
$EndComp
Wire Wire Line
	6550 3100 6550 2600
Connection ~ 6550 2600
Wire Wire Line
	6550 2600 5900 2600
$Comp
L Device:R R3
U 1 1 5D0690AE
P 6550 3650
F 0 "R3" H 6620 3696 50  0000 L CNN
F 1 "390" H 6620 3605 50  0000 L CNN
F 2 "Resistor_THT:R_Axial_DIN0207_L6.3mm_D2.5mm_P10.16mm_Horizontal" V 6480 3650 50  0001 C CNN
F 3 "~" H 6550 3650 50  0001 C CNN
	1    6550 3650
	1    0    0    -1  
$EndComp
Wire Wire Line
	6550 3500 6550 3400
Wire Wire Line
	6550 3800 6550 3950
Wire Wire Line
	6550 3950 5150 3950
$Comp
L power:GNDA #PWR0110
U 1 1 5D06BD3C
P 5350 4300
F 0 "#PWR0110" H 5350 4050 50  0001 C CNN
F 1 "GNDA" H 5355 4127 50  0000 C CNN
F 2 "" H 5350 4300 50  0001 C CNN
F 3 "" H 5350 4300 50  0001 C CNN
	1    5350 4300
	1    0    0    -1  
$EndComp
Wire Wire Line
	5350 4300 5350 4150
Wire Wire Line
	5350 4150 5150 4150
$Comp
L Device:R R4
U 1 1 5D06DA88
P 6550 4200
F 0 "R4" H 6620 4246 50  0000 L CNN
F 1 "2k" H 6620 4155 50  0000 L CNN
F 2 "Resistor_THT:R_Axial_DIN0207_L6.3mm_D2.5mm_P10.16mm_Horizontal" V 6480 4200 50  0001 C CNN
F 3 "~" H 6550 4200 50  0001 C CNN
	1    6550 4200
	1    0    0    -1  
$EndComp
Wire Wire Line
	6550 4050 6550 3950
Connection ~ 6550 3950
$Comp
L power:GNDA #PWR0111
U 1 1 5D06F500
P 6550 4350
F 0 "#PWR0111" H 6550 4100 50  0001 C CNN
F 1 "GNDA" H 6555 4177 50  0000 C CNN
F 2 "" H 6550 4350 50  0001 C CNN
F 3 "" H 6550 4350 50  0001 C CNN
	1    6550 4350
	1    0    0    -1  
$EndComp
Wire Wire Line
	1450 800  1450 1150
Wire Wire Line
	7600 2800 7600 2700
Wire Wire Line
	7600 2700 7700 2700
$Comp
L Device:LED D8
U 1 1 5D08D812
P 7150 2850
F 0 "D8" V 7189 2733 50  0000 R CNN
F 1 "LED" V 7098 2733 50  0000 R CNN
F 2 "LED_THT:LED_D5.0mm" H 7150 2850 50  0001 C CNN
F 3 "~" H 7150 2850 50  0001 C CNN
	1    7150 2850
	0    -1   -1   0   
$EndComp
$Comp
L Device:R R5
U 1 1 5D08E292
P 7150 3300
F 0 "R5" H 7220 3346 50  0000 L CNN
F 1 "560" H 7220 3255 50  0000 L CNN
F 2 "Resistor_THT:R_Axial_DIN0207_L6.3mm_D2.5mm_P10.16mm_Horizontal" V 7080 3300 50  0001 C CNN
F 3 "~" H 7150 3300 50  0001 C CNN
	1    7150 3300
	1    0    0    -1  
$EndComp
$Comp
L power:GNDA #PWR0112
U 1 1 5D08E62B
P 7150 3450
F 0 "#PWR0112" H 7150 3200 50  0001 C CNN
F 1 "GNDA" H 7155 3277 50  0000 C CNN
F 2 "" H 7150 3450 50  0001 C CNN
F 3 "" H 7150 3450 50  0001 C CNN
	1    7150 3450
	1    0    0    -1  
$EndComp
Wire Wire Line
	7150 3150 7150 3000
Wire Wire Line
	7150 2700 7150 2600
Wire Wire Line
	6550 2600 7150 2600
Wire Wire Line
	7150 2600 7700 2600
Connection ~ 7150 2600
Wire Wire Line
	3350 1200 3900 1200
Wire Wire Line
	3350 2100 3350 2250
Wire Wire Line
	5300 1450 5050 1450
Wire Wire Line
	5300 1450 5300 2600
$Comp
L Regulator_Switching:TNY280G U?
U 1 1 5EB1AF06
P 3550 4050
F 0 "U?" H 3220 4096 50  0000 R CNN
F 1 "TNY280G" H 3220 4005 50  0000 R CNN
F 2 "Package_DIP:PowerIntegrations_SMD-8C" H 3550 4050 50  0001 C CIN
F 3 "http://www.powerint.com/sites/default/files/product-docs/tny274-280.pdf" H 3550 4050 50  0001 C CNN
	1    3550 4050
	1    0    0    -1  
$EndComp
$Comp
L Device:R R?
U 1 1 5EB1BD84
P 3900 1450
F 0 "R?" H 3970 1496 50  0000 L CNN
F 1 "100" H 3970 1405 50  0000 L CNN
F 2 "Resistor_THT:R_Axial_DIN0207_L6.3mm_D2.5mm_P10.16mm_Horizontal" V 3830 1450 50  0001 C CNN
F 3 "~" H 3900 1450 50  0001 C CNN
	1    3900 1450
	1    0    0    -1  
$EndComp
$Comp
L Device:C C?
U 1 1 5EB1C3B1
P 3900 1950
F 0 "C?" H 4015 1996 50  0000 L CNN
F 1 "10n/1kV" H 4015 1905 50  0000 L CNN
F 2 "" H 3938 1800 50  0001 C CNN
F 3 "~" H 3900 1950 50  0001 C CNN
	1    3900 1950
	1    0    0    -1  
$EndComp
Wire Wire Line
	3900 2100 3900 2250
Wire Wire Line
	3900 2250 3350 2250
Connection ~ 3350 2250
Wire Wire Line
	3350 2250 3350 2350
Wire Wire Line
	3900 1800 3900 1600
Wire Wire Line
	3900 1300 3900 1200
Connection ~ 3900 1200
Wire Wire Line
	3900 1200 4400 1200
Wire Wire Line
	4350 1650 4650 1650
Wire Wire Line
	4350 1650 4350 2800
$Comp
L Device:CP_Small C?
U 1 1 5EB2039D
P 4050 4400
F 0 "C?" H 4138 4446 50  0000 L CNN
F 1 "10u" H 4138 4355 50  0000 L CNN
F 2 "" H 4050 4400 50  0001 C CNN
F 3 "~" H 4050 4400 50  0001 C CNN
	1    4050 4400
	1    0    0    -1  
$EndComp
$Comp
L power:GND #PWR?
U 1 1 5EB20969
P 4650 2050
F 0 "#PWR?" H 4650 1800 50  0001 C CNN
F 1 "GND" H 4655 1877 50  0000 C CNN
F 2 "" H 4650 2050 50  0001 C CNN
F 3 "" H 4650 2050 50  0001 C CNN
	1    4650 2050
	1    0    0    -1  
$EndComp
Wire Wire Line
	4650 1850 4500 1850
Wire Wire Line
	4500 1850 4500 2500
$Comp
L Device:R R?
U 1 1 5EB2218C
P 4500 2650
F 0 "R?" H 4570 2696 50  0000 L CNN
F 1 "22" H 4570 2605 50  0000 L CNN
F 2 "" V 4430 2650 50  0001 C CNN
F 3 "~" H 4500 2650 50  0001 C CNN
	1    4500 2650
	1    0    0    -1  
$EndComp
$Comp
L Device:D_Schottky D?
U 1 1 5EB2287C
P 4500 2950
F 0 "D?" V 4546 2871 50  0000 R CNN
F 1 "UF4007" V 4455 2871 50  0000 R CNN
F 2 "" H 4500 2950 50  0001 C CNN
F 3 "~" H 4500 2950 50  0001 C CNN
	1    4500 2950
	0    -1   -1   0   
$EndComp
$EndSCHEMATC
